digraph {

    rankdir=LR

    {
        enteros [ shape=record label="{ <0>4 | <1>2 | <2>3 | <3>1 | <4>5}" ]
    }

    {
        punters [ shape=record label="{ <to_0>o | <to_1>o | <to_2>o | <to_3>o | <to_4>o}" ]
    }

    punters:to_0 -> enteros:3
    punters:to_1 -> enteros:1
    punters:to_2 -> enteros:2
    punters:to_3 -> enteros:0
    punters:to_4 -> enteros:4
}
